This work consists of the following files:

-- Styles --

kremlinscript.sty


-- map file --

kremlinscript.map


-- fd files --

8r6ks.fd
ot16ks.fd
t16ks.fd
ts16ks.fd


-- tfm files --

6ksr7t.tfm
6ksr8a.tfm
6ksr8c.tfm
6ksr8r.tfm
6ksr8t.tfm
6ksrc7t.tfm
6ksrc8t.tfm
6ksro7t.tfm
6ksro8c.tfm
6ksro8r.tfm
6ksro8t.tfm


-- vf files --

6ksr7t.vf
6ksr8c.vf
6ksr8t.vf
6ksrc7t.vf
6ksrc8t.vf
6ksro7t.vf
6ksro8c.vf
6ksro8t.vf


-- Documentation --

kremlinscript.pdf


-- Misc. Files --

README
manifest.txt
INSTALL
CHANGES
